      0.1129051952946438E+01      0.9524161001967992E+00     -0.3815804723901106E+00      0.1000000000000000E+01      0.1104738441819301E-11
      0.1166146757651794E+01      0.1012138814243476E+01     -0.3814719828997065E+00      0.1000000000000000E+01      0.1526025484835930E-12
      0.1203241562357151E+01      0.1069452089930053E+01     -0.3770165573402526E+00      0.1000000000000000E+01      0.2592762054134078E-13
      0.1240336367062507E+01      0.1124059755895453E+01     -0.3695040802930287E+00      0.1000000000000000E+01      0.2048441622868166E-13
      0.1277431171767863E+01      0.1176046463801426E+01     -0.3598674378770451E+00      0.1000000000000000E+01      0.6950285992107649E-11
      0.1314525976473219E+01      0.1225629540799800E+01     -0.3487435333464732E+00      0.1000000000000000E+01      0.1705893764544443E-10
      0.1351620781178575E+01      0.1273051359662313E+01     -0.3365643788976228E+00      0.1000000000000000E+01      0.2188167157467792E-10
      0.1388715585883932E+01      0.1318539596406952E+01     -0.3236269797890906E+00      0.1000000000000000E+01      0.2099909738934050E-10
      0.1425810390589288E+01      0.1362295606915715E+01     -0.3101396830590815E+00      0.1000000000000000E+01      0.1772786030664615E-10
      0.1462905195294644E+01      0.1404493484852293E+01     -0.2962517804571139E+00      0.1000000000000000E+01      0.1410248804047053E-10
      0.1500000000000000E+01      0.1445282716942298E+01     -0.2820724192109869E+00      0.1000000000000000E+01      0.1093127210202745E-10
